<?xml version="1.0" encoding="UTF-8" standalone="no"?>
<svg width="22px" height="25px" viewBox="0 0 22 25" version="1.1" xmlns="http://www.w3.org/2000/svg" xmlns:xlink="http://www.w3.org/1999/xlink" xmlns:sketch="http://www.bohemiancoding.com/sketch/ns">
    <!-- Generator: Sketch 3.3.3 (12081) - http://www.bohemiancoding.com/sketch -->
    <title>robot30</title>
    <desc>Created with Sketch.</desc>
    <defs></defs>
    <g id="Page-1" stroke="none" stroke-width="1" fill="none" fill-rule="evenodd" sketch:type="MSPage">
        <g id="robot30" sketch:type="MSLayerGroup" fill="#CCCCCC">
            <g id="Page-1" sketch:type="MSShapeGroup">
                <g id="robot30">
                    <g id="Group">
                        <circle id="Oval" cx="10.9742188" cy="6.1296875" r="0.75234375"></circle>
                        <rect id="Rectangle-path" x="9.85" y="19.9679687" width="1.71953125" height="0.6609375"></rect>
                        <rect id="Rectangle-path" x="9.85" y="20.9734375" width="1.71953125" height="0.6609375"></rect>
                        <rect id="Rectangle-path" x="9.85" y="21.8703125" width="1.71953125" height="0.6609375"></rect>
                        <path d="M11.5703125,23.3929687 L11.5703125,22.8765625 L9.85078125,22.8765625 L9.85078125,23.3929687 C9.27890625,23.7007812 8.8890625,24.3039062 8.8890625,25 L12.5335938,25 C12.53125,24.3039062 12.1421875,23.7 11.5703125,23.3929687 L11.5703125,23.3929687 L11.5703125,23.3929687 Z" id="Shape"></path>
                        <rect id="Rectangle-path" x="13.7945312" y="19.9679687" width="1.71953125" height="0.6609375"></rect>
                        <rect id="Rectangle-path" x="13.7945312" y="20.9734375" width="1.71953125" height="0.6609375"></rect>
                        <rect id="Rectangle-path" x="13.7945312" y="21.8703125" width="1.71953125" height="0.6609375"></rect>
                        <path d="M15.5140625,23.3929687 L15.5140625,22.8765625 L13.7945313,22.8765625 L13.7945313,23.3929687 C13.2226563,23.7007812 12.8320313,24.3039062 12.8320313,25 L16.4757813,25 C16.4773438,24.3039062 16.0867188,23.7 15.5140625,23.3929687 L15.5140625,23.3929687 L15.5140625,23.3929687 Z" id="Shape"></path>
                        <circle id="Oval" cx="14.3382812" cy="6.1296875" r="0.75234375"></circle>
                        <path d="M20.2890625,17.1585937 L20.2921875,17.1578125 L17.0664062,10.7773438 L17.0648437,10.778125 L17.0648437,10.7773438 L14.5578125,10.7773438 L14.5578125,9.190625 L16.3039062,9.190625 L16.3039062,4.0546875 L14.1882812,4.0546875 L14.1882812,2.996875 L12.7882813,2.996875 L12.7882813,0.78203125 L13.075,0.78203125 L13.075,0 L12.65625,0 L12.2367188,0 L12.2367188,0.78203125 L12.5234375,0.78203125 L12.5234375,2.996875 L11.1242188,2.996875 L11.1242188,4.0546875 L9.00859375,4.0546875 L9.00859375,9.18984375 L10.7554688,9.18984375 L10.7554688,10.7765625 L8.22578125,10.7765625 L6.30234375,13.146875 L2.8921875,10.0578125 L2.8921875,8.80390625 L2.2046875,8.80390625 L2.2046875,10.5625 L0.44609375,10.5625 L0.44609375,11.25 L1.84609375,11.25 L6.4765625,15.4453125 L8.2265625,13.3 L8.2265625,18.4695313 L9.81328125,18.4695313 L9.81328125,19.6585938 L11.53125,19.6585938 L11.53125,18.4695313 L13.7585937,18.4695313 L13.7585937,19.6585938 L15.4773437,19.6585938 L15.4773437,18.4695313 L17.0640625,18.4695313 L17.0640625,14.2890625 L18.7664062,17.65625 L18.2234375,18.94375 L18.8578125,19.2109375 L19.5414062,17.590625 L21.1617187,18.2742187 L21.4289062,17.6398437 L20.2890625,17.1585937 L20.2890625,17.1585937 Z M15.6171875,6.1296875 C15.6171875,6.8359375 15.0445312,7.40859375 14.3375,7.40859375 C13.6304687,7.40859375 13.0585937,6.8359375 13.0585937,6.1296875 C13.0585937,5.4234375 13.6304687,4.85078125 14.3375,4.85078125 C15.0445312,4.85078125 15.6171875,5.4234375 15.6171875,6.1296875 L15.6171875,6.1296875 L15.6171875,6.1296875 Z M9.6953125,6.1296875 C9.6953125,5.4234375 10.2679688,4.85078125 10.9742188,4.85078125 C11.6804688,4.85078125 12.253125,5.4234375 12.253125,6.1296875 C12.253125,6.8359375 11.6804688,7.40859375 10.9742188,7.40859375 C10.2679688,7.40859375 9.6953125,6.8359375 9.6953125,6.1296875 L9.6953125,6.1296875 L9.6953125,6.1296875 Z M13.3890625,16.7382812 L9.56484375,16.7382812 L9.56484375,15.721875 L13.3890625,15.721875 L13.3890625,16.7382812 L13.3890625,16.7382812 Z M13.3890625,15.1296875 L9.56484375,15.1296875 L9.56484375,14.1125 L13.3890625,14.1125 L13.3890625,15.1296875 L13.3890625,15.1296875 Z M13.3890625,13.490625 L9.56484375,13.490625 L9.56484375,12.4742188 L13.3890625,12.4742188 L13.3890625,13.490625 L13.3890625,13.490625 Z M12.65625,8.4296875 L11.2234375,8.4296875 L11.2234375,7.92265625 L12.65625,7.92265625 L14.0882812,7.92265625 L14.0882812,8.4296875 L12.65625,8.4296875 L12.65625,8.4296875 Z M15.803125,16.7382812 L13.9625,16.7382812 L13.9625,15.721875 L15.803125,15.721875 L15.803125,16.7382812 L15.803125,16.7382812 Z M15.803125,15.1296875 L13.9625,15.1296875 L13.9625,14.1125 L15.803125,14.1125 L15.803125,15.1296875 L15.803125,15.1296875 Z M15.803125,13.490625 L13.9625,13.490625 L13.9625,12.4742188 L15.803125,12.4742188 L15.803125,13.490625 L15.803125,13.490625 Z" id="Shape"></path>
                    </g>
                </g>
            </g>
        </g>
    </g>
</svg>